results/simulation_results.txt
==========================================================================================================================================================================================
                                                   RV32IM 5-STAGE PIPELINE EXECUTION TABLE
==========================================================================================================================================================================================
CYCLE | IF_PC    | IF_INSTR | ID_PC    | ID_INSTR | EX_PC    | EX_INSTR | EX_RESULT | MEM_RESULT | WB_RD | WB_RESULT | STALL | FWD_A | FWD_B | BR | PRED | REDIR | TRAP
------------------------------------------------------------------------------------------------------------------------------------------------------------------------------------------
    1 | 00000004 | 30509073 | 00000000 | 04000093 | 00000000 | 00000013 | 00000000 | 00000000   | x00  | 00000000  |   0   |  00   |  00   | 1  |  0   |   0   |  0
    2 | 00000008 | 00100113 | 00000004 | 30509073 | 00000000 | 04000093 | 00000040 | 00000000   | x00  | 00000000  |   0   |  00   |  00   | 1  |  0   |   0   |  0
    3 | 0000000c | ffffffff | 00000008 | 00100113 | 00000004 | 30509073 | 00000100 | 00000040   | x00  | 00000000  |   0   |  10   |  00   | 1  |  0   |   0   |  0
      >>> FORWARD A : selector = 10

      >>> CSR OPERATION : PC=00000004 CSR=305 OLD_VALUE=00000100

    4 | 00000010 | 00200193 | 0000000c | ffffffff | 00000008 | 00100113 | 00000001 | 00000100   | x00  | 00000000  |   0   |  00   |  00   | 0  |  0   |   0   |  0
    5 | 00000014 | 00300213 | 00000010 | 00200193 | 0000000c | ffffffff | 00000000 | 00000001   | x01  | 00000040  |   0   |  00   |  00   | 1  |  0   |   0   |  1

!!!!!!!!!!!!!!!!!!!!!!!!!!!!!!!!!!!!!!!!!!!!!!!!!!!!!!!!!!!!
                     EXCEPTION / TRAP
!!!!!!!!!!!!!!!!!!!!!!!!!!!!!!!!!!!!!!!!!!!!!!!!!!!!!!!!!!!!
PC       = 0x0000000c
INSTR    = 0xffffffff
CAUSE    = 2
MTVAL    = 0xffffffff
MTVEC    = 0x00000040
REDIRECT = 0x00000040
!!!!!!!!!!!!!!!!!!!!!!!!!!!!!!!!!!!!!!!!!!!!!!!!!!!!!!!!!!!!

    6 | 00000040 | 342022f3 | 00000000 | 00000013 | 00000000 | 00000013 | 00000000 | 00000000   | x00  | 00000100  |   0   |  00   |  00   | 1  |  0   |   0   |  0
      >>> WRITEBACK : x0 <= 0x00000100   signed=256
    7 | 00000044 | 34102373 | 00000040 | 342022f3 | 00000000 | 00000013 | 00000000 | 00000000   | x02  | 00000001  |   0   |  00   |  00   | 1  |  0   |   0   |  0
    8 | 00000048 | 34302473 | 00000044 | 34102373 | 00000040 | 342022f3 | 00000002 | 00000000   | x31  | 00000000  |   0   |  00   |  00   | 0  |  0   |   0   |  0
      >>> WRITEBACK : x31 <= 0x00000000   signed=0

      >>> CSR OPERATION : PC=00000040 CSR=342 OLD_VALUE=00000002

    9 | 0000004c | 00430313 | 00000048 | 34302473 | 00000044 | 34102373 | 0000000c | 00000002   | x00  | 00000000  |   0   |  00   |  00   | 0  |  0   |   0   |  0

      >>> CSR OPERATION : PC=00000044 CSR=341 OLD_VALUE=0000000c

   10 | 00000050 | 34131073 | 0000004c | 00430313 | 00000048 | 34302473 | ffffffff | 0000000c   | x00  | 00000000  |   0   |  00   |  00   | 0  |  0   |   0   |  0

      >>> CSR OPERATION : PC=00000048 CSR=343 OLD_VALUE=ffffffff

   11 | 00000054 | 00100493 | 00000050 | 34131073 | 0000004c | 00430313 | 00000010 | ffffffff   | x05  | 00000002  |   0   |  00   |  00   | 0  |  0   |   0   |  0
   12 | 00000058 | 30200073 | 00000054 | 00100493 | 00000050 | 34131073 | 0000000c | 00000010   | x06  | 0000000c  |   0   |  10   |  00   | 1  |  0   |   0   |  0
      >>> WRITEBACK : x6 <= 0x0000000c   signed=12
      >>> FORWARD A : selector = 10

      >>> CSR OPERATION : PC=00000050 CSR=341 OLD_VALUE=0000000c

   13 | 0000005c | 00000013 | 00000058 | 30200073 | 00000054 | 00100493 | 00000001 | 0000000c   | x08  | ffffffff  |   0   |  00   |  00   | 0  |  0   |   0   |  0
      >>> WRITEBACK : x8 <= 0xffffffff   signed=-1
   14 | 00000060 | 00000013 | 0000005c | 00000013 | 00000058 | 30200073 | 00000001 | 00000001   | x06  | 00000010  |   0   |  00   |  00   | 0  |  0   |   0   |  0
      >>> WRITEBACK : x6 <= 0x00000010   signed=16

      >>> MRET : Returning to MEPC = 0x00000010

   15 | 00000010 | 00200193 | 00000000 | 00000013 | 00000000 | 00000013 | 00000000 | 00000001   | x00  | 0000000c  |   0   |  00   |  00   | 1  |  0   |   0   |  0
      >>> WRITEBACK : x0 <= 0x0000000c   signed=12
   16 | 00000014 | 00300213 | 00000010 | 00200193 | 00000000 | 00000013 | 00000000 | 00000000   | x09  | 00000001  |   0   |  00   |  00   | 1  |  0   |   0   |  0
   17 | 00000018 | 0000006f | 00000014 | 00300213 | 00000010 | 00200193 | 00000002 | 00000000   | x00  | 00000001  |   0   |  00   |  00   | 0  |  0   |   0   |  0
      >>> WRITEBACK : x0 <= 0x00000001   signed=1
   18 | 0000001c | 00000013 | 00000018 | 0000006f | 00000014 | 00300213 | 00000003 | 00000002   | x00  | 00000000  |   0   |  00   |  10   | 0  |  0   |   0   |  0
      >>> FORWARD B : selector = 10
   19 | 00000020 | 00000013 | 0000001c | 00000013 | 00000018 | 0000006f | 0000001c | 00000003   | x00  | 00000000  |   0   |  00   |  00   | 1  |  0   |   1   |  0

      >>> JUMP : PC=00000018 TARGET=00000018

   20 | 00000018 | 0000006f | 00000000 | 00000013 | 00000000 | 00000013 | 00000000 | 0000001c   | x03  | 00000002  |   0   |  00   |  00   | 1  |  0   |   0   |  0
   21 | 0000001c | 00000013 | 00000018 | 0000006f | 00000000 | 00000013 | 00000000 | 00000000   | x04  | 00000003  |   0   |  00   |  00   | 1  |  0   |   0   |  0
      >>> WRITEBACK : x4 <= 0x00000003   signed=3
   22 | 00000020 | 00000013 | 0000001c | 00000013 | 00000018 | 0000006f | 0000001c | 00000000   | x00  | 0000001c  |   0   |  00   |  00   | 1  |  0   |   1   |  0
      >>> WRITEBACK : x0 <= 0x0000001c   signed=28

      >>> JUMP : PC=00000018 TARGET=00000018

   23 | 00000018 | 0000006f | 00000000 | 00000013 | 00000000 | 00000013 | 00000000 | 0000001c   | x00  | 00000000  |   0   |  00   |  00   | 1  |  0   |   0   |  0
   24 | 0000001c | 00000013 | 00000018 | 0000006f | 00000000 | 00000013 | 00000000 | 00000000   | x00  | 00000000  |   0   |  00   |  00   | 1  |  0   |   0   |  0
   25 | 00000020 | 00000013 | 0000001c | 00000013 | 00000018 | 0000006f | 0000001c | 00000000   | x00  | 0000001c  |   0   |  00   |  00   | 1  |  0   |   1   |  0

      >>> JUMP : PC=00000018 TARGET=00000018

   26 | 00000018 | 0000006f | 00000000 | 00000013 | 00000000 | 00000013 | 00000000 | 0000001c   | x00  | 00000000  |   0   |  00   |  00   | 1  |  0   |   0   |  0
   27 | 0000001c | 00000013 | 00000018 | 0000006f | 00000000 | 00000013 | 00000000 | 00000000   | x00  | 00000000  |   0   |  00   |  00   | 1  |  0   |   0   |  0
   28 | 00000020 | 00000013 | 0000001c | 00000013 | 00000018 | 0000006f | 0000001c | 00000000   | x00  | 0000001c  |   0   |  00   |  00   | 1  |  0   |   1   |  0

      >>> JUMP : PC=00000018 TARGET=00000018

   29 | 00000018 | 0000006f | 00000000 | 00000013 | 00000000 | 00000013 | 00000000 | 0000001c   | x00  | 00000000  |   0   |  00   |  00   | 1  |  0   |   0   |  0
   30 | 0000001c | 00000013 | 00000018 | 0000006f | 00000000 | 00000013 | 00000000 | 00000000   | x00  | 00000000  |   0   |  00   |  00   | 1  |  0   |   0   |  0
   31 | 00000020 | 00000013 | 0000001c | 00000013 | 00000018 | 0000006f | 0000001c | 00000000   | x00  | 0000001c  |   0   |  00   |  00   | 1  |  0   |   1   |  0

      >>> JUMP : PC=00000018 TARGET=00000018

   32 | 00000018 | 0000006f | 00000000 | 00000013 | 00000000 | 00000013 | 00000000 | 0000001c   | x00  | 00000000  |   0   |  00   |  00   | 1  |  0   |   0   |  0
   33 | 0000001c | 00000013 | 00000018 | 0000006f | 00000000 | 00000013 | 00000000 | 00000000   | x00  | 00000000  |   0   |  00   |  00   | 1  |  0   |   0   |  0
   34 | 00000020 | 00000013 | 0000001c | 00000013 | 00000018 | 0000006f | 0000001c | 00000000   | x00  | 0000001c  |   0   |  00   |  00   | 1  |  0   |   1   |  0

      >>> JUMP : PC=00000018 TARGET=00000018

   35 | 00000018 | 0000006f | 00000000 | 00000013 | 00000000 | 00000013 | 00000000 | 0000001c   | x00  | 00000000  |   0   |  00   |  00   | 1  |  0   |   0   |  0
   36 | 0000001c | 00000013 | 00000018 | 0000006f | 00000000 | 00000013 | 00000000 | 00000000   | x00  | 00000000  |   0   |  00   |  00   | 1  |  0   |   0   |  0
   37 | 00000020 | 00000013 | 0000001c | 00000013 | 00000018 | 0000006f | 0000001c | 00000000   | x00  | 0000001c  |   0   |  00   |  00   | 1  |  0   |   1   |  0

      >>> JUMP : PC=00000018 TARGET=00000018

   38 | 00000018 | 0000006f | 00000000 | 00000013 | 00000000 | 00000013 | 00000000 | 0000001c   | x00  | 00000000  |   0   |  00   |  00   | 1  |  0   |   0   |  0
   39 | 0000001c | 00000013 | 00000018 | 0000006f | 00000000 | 00000013 | 00000000 | 00000000   | x00  | 00000000  |   0   |  00   |  00   | 1  |  0   |   0   |  0
   40 | 00000020 | 00000013 | 0000001c | 00000013 | 00000018 | 0000006f | 0000001c | 00000000   | x00  | 0000001c  |   0   |  00   |  00   | 1  |  0   |   1   |  0

      >>> JUMP : PC=00000018 TARGET=00000018

   41 | 00000018 | 0000006f | 00000000 | 00000013 | 00000000 | 00000013 | 00000000 | 0000001c   | x00  | 00000000  |   0   |  00   |  00   | 1  |  0   |   0   |  0
   42 | 0000001c | 00000013 | 00000018 | 0000006f | 00000000 | 00000013 | 00000000 | 00000000   | x00  | 00000000  |   0   |  00   |  00   | 1  |  0   |   0   |  0
   43 | 00000020 | 00000013 | 0000001c | 00000013 | 00000018 | 0000006f | 0000001c | 00000000   | x00  | 0000001c  |   0   |  00   |  00   | 1  |  0   |   1   |  0

      >>> JUMP : PC=00000018 TARGET=00000018

   44 | 00000018 | 0000006f | 00000000 | 00000013 | 00000000 | 00000013 | 00000000 | 0000001c   | x00  | 00000000  |   0   |  00   |  00   | 1  |  0   |   0   |  0
   45 | 0000001c | 00000013 | 00000018 | 0000006f | 00000000 | 00000013 | 00000000 | 00000000   | x00  | 00000000  |   0   |  00   |  00   | 1  |  0   |   0   |  0
   46 | 00000020 | 00000013 | 0000001c | 00000013 | 00000018 | 0000006f | 0000001c | 00000000   | x00  | 0000001c  |   0   |  00   |  00   | 1  |  0   |   1   |  0

      >>> JUMP : PC=00000018 TARGET=00000018

   47 | 00000018 | 0000006f | 00000000 | 00000013 | 00000000 | 00000013 | 00000000 | 0000001c   | x00  | 00000000  |   0   |  00   |  00   | 1  |  0   |   0   |  0
   48 | 0000001c | 00000013 | 00000018 | 0000006f | 00000000 | 00000013 | 00000000 | 00000000   | x00  | 00000000  |   0   |  00   |  00   | 1  |  0   |   0   |  0
   49 | 00000020 | 00000013 | 0000001c | 00000013 | 00000018 | 0000006f | 0000001c | 00000000   | x00  | 0000001c  |   0   |  00   |  00   | 1  |  0   |   1   |  0

      >>> JUMP : PC=00000018 TARGET=00000018

   50 | 00000018 | 0000006f | 00000000 | 00000013 | 00000000 | 00000013 | 00000000 | 0000001c   | x00  | 00000000  |   0   |  00   |  00   | 1  |  0   |   0   |  0
   51 | 0000001c | 00000013 | 00000018 | 0000006f | 00000000 | 00000013 | 00000000 | 00000000   | x00  | 00000000  |   0   |  00   |  00   | 1  |  0   |   0   |  0
   52 | 00000020 | 00000013 | 0000001c | 00000013 | 00000018 | 0000006f | 0000001c | 00000000   | x00  | 0000001c  |   0   |  00   |  00   | 1  |  0   |   1   |  0

      >>> JUMP : PC=00000018 TARGET=00000018

   53 | 00000018 | 0000006f | 00000000 | 00000013 | 00000000 | 00000013 | 00000000 | 0000001c   | x00  | 00000000  |   0   |  00   |  00   | 1  |  0   |   0   |  0
   54 | 0000001c | 00000013 | 00000018 | 0000006f | 00000000 | 00000013 | 00000000 | 00000000   | x00  | 00000000  |   0   |  00   |  00   | 1  |  0   |   0   |  0
   55 | 00000020 | 00000013 | 0000001c | 00000013 | 00000018 | 0000006f | 0000001c | 00000000   | x00  | 0000001c  |   0   |  00   |  00   | 1  |  0   |   1   |  0

      >>> JUMP : PC=00000018 TARGET=00000018

   56 | 00000018 | 0000006f | 00000000 | 00000013 | 00000000 | 00000013 | 00000000 | 0000001c   | x00  | 00000000  |   0   |  00   |  00   | 1  |  0   |   0   |  0
   57 | 0000001c | 00000013 | 00000018 | 0000006f | 00000000 | 00000013 | 00000000 | 00000000   | x00  | 00000000  |   0   |  00   |  00   | 1  |  0   |   0   |  0
   58 | 00000020 | 00000013 | 0000001c | 00000013 | 00000018 | 0000006f | 0000001c | 00000000   | x00  | 0000001c  |   0   |  00   |  00   | 1  |  0   |   1   |  0

      >>> JUMP : PC=00000018 TARGET=00000018

   59 | 00000018 | 0000006f | 00000000 | 00000013 | 00000000 | 00000013 | 00000000 | 0000001c   | x00  | 00000000  |   0   |  00   |  00   | 1  |  0   |   0   |  0
   60 | 0000001c | 00000013 | 00000018 | 0000006f | 00000000 | 00000013 | 00000000 | 00000000   | x00  | 00000000  |   0   |  00   |  00   | 1  |  0   |   0   |  0
   61 | 00000020 | 00000013 | 0000001c | 00000013 | 00000018 | 0000006f | 0000001c | 00000000   | x00  | 0000001c  |   0   |  00   |  00   | 1  |  0   |   1   |  0

      >>> JUMP : PC=00000018 TARGET=00000018

   62 | 00000018 | 0000006f | 00000000 | 00000013 | 00000000 | 00000013 | 00000000 | 0000001c   | x00  | 00000000  |   0   |  00   |  00   | 1  |  0   |   0   |  0
   63 | 0000001c | 00000013 | 00000018 | 0000006f | 00000000 | 00000013 | 00000000 | 00000000   | x00  | 00000000  |   0   |  00   |  00   | 1  |  0   |   0   |  0
   64 | 00000020 | 00000013 | 0000001c | 00000013 | 00000018 | 0000006f | 0000001c | 00000000   | x00  | 0000001c  |   0   |  00   |  00   | 1  |  0   |   1   |  0

      >>> JUMP : PC=00000018 TARGET=00000018

   65 | 00000018 | 0000006f | 00000000 | 00000013 | 00000000 | 00000013 | 00000000 | 0000001c   | x00  | 00000000  |   0   |  00   |  00   | 1  |  0   |   0   |  0
   66 | 0000001c | 00000013 | 00000018 | 0000006f | 00000000 | 00000013 | 00000000 | 00000000   | x00  | 00000000  |   0   |  00   |  00   | 1  |  0   |   0   |  0
   67 | 00000020 | 00000013 | 0000001c | 00000013 | 00000018 | 0000006f | 0000001c | 00000000   | x00  | 0000001c  |   0   |  00   |  00   | 1  |  0   |   1   |  0

      >>> JUMP : PC=00000018 TARGET=00000018

   68 | 00000018 | 0000006f | 00000000 | 00000013 | 00000000 | 00000013 | 00000000 | 0000001c   | x00  | 00000000  |   0   |  00   |  00   | 1  |  0   |   0   |  0
   69 | 0000001c | 00000013 | 00000018 | 0000006f | 00000000 | 00000013 | 00000000 | 00000000   | x00  | 00000000  |   0   |  00   |  00   | 1  |  0   |   0   |  0
   70 | 00000020 | 00000013 | 0000001c | 00000013 | 00000018 | 0000006f | 0000001c | 00000000   | x00  | 0000001c  |   0   |  00   |  00   | 1  |  0   |   1   |  0

      >>> JUMP : PC=00000018 TARGET=00000018

   71 | 00000018 | 0000006f | 00000000 | 00000013 | 00000000 | 00000013 | 00000000 | 0000001c   | x00  | 00000000  |   0   |  00   |  00   | 1  |  0   |   0   |  0
   72 | 0000001c | 00000013 | 00000018 | 0000006f | 00000000 | 00000013 | 00000000 | 00000000   | x00  | 00000000  |   0   |  00   |  00   | 1  |  0   |   0   |  0
   73 | 00000020 | 00000013 | 0000001c | 00000013 | 00000018 | 0000006f | 0000001c | 00000000   | x00  | 0000001c  |   0   |  00   |  00   | 1  |  0   |   1   |  0

      >>> JUMP : PC=00000018 TARGET=00000018

   74 | 00000018 | 0000006f | 00000000 | 00000013 | 00000000 | 00000013 | 00000000 | 0000001c   | x00  | 00000000  |   0   |  00   |  00   | 1  |  0   |   0   |  0
   75 | 0000001c | 00000013 | 00000018 | 0000006f | 00000000 | 00000013 | 00000000 | 00000000   | x00  | 00000000  |   0   |  00   |  00   | 1  |  0   |   0   |  0
   76 | 00000020 | 00000013 | 0000001c | 00000013 | 00000018 | 0000006f | 0000001c | 00000000   | x00  | 0000001c  |   0   |  00   |  00   | 1  |  0   |   1   |  0

      >>> JUMP : PC=00000018 TARGET=00000018

   77 | 00000018 | 0000006f | 00000000 | 00000013 | 00000000 | 00000013 | 00000000 | 0000001c   | x00  | 00000000  |   0   |  00   |  00   | 1  |  0   |   0   |  0
   78 | 0000001c | 00000013 | 00000018 | 0000006f | 00000000 | 00000013 | 00000000 | 00000000   | x00  | 00000000  |   0   |  00   |  00   | 1  |  0   |   0   |  0
   79 | 00000020 | 00000013 | 0000001c | 00000013 | 00000018 | 0000006f | 0000001c | 00000000   | x00  | 0000001c  |   0   |  00   |  00   | 1  |  0   |   1   |  0

      >>> JUMP : PC=00000018 TARGET=00000018

   80 | 00000018 | 0000006f | 00000000 | 00000013 | 00000000 | 00000013 | 00000000 | 0000001c   | x00  | 00000000  |   0   |  00   |  00   | 1  |  0   |   0   |  0
   81 | 0000001c | 00000013 | 00000018 | 0000006f | 00000000 | 00000013 | 00000000 | 00000000   | x00  | 00000000  |   0   |  00   |  00   | 1  |  0   |   0   |  0
   82 | 00000020 | 00000013 | 0000001c | 00000013 | 00000018 | 0000006f | 0000001c | 00000000   | x00  | 0000001c  |   0   |  00   |  00   | 1  |  0   |   1   |  0

      >>> JUMP : PC=00000018 TARGET=00000018

   83 | 00000018 | 0000006f | 00000000 | 00000013 | 00000000 | 00000013 | 00000000 | 0000001c   | x00  | 00000000  |   0   |  00   |  00   | 1  |  0   |   0   |  0
   84 | 0000001c | 00000013 | 00000018 | 0000006f | 00000000 | 00000013 | 00000000 | 00000000   | x00  | 00000000  |   0   |  00   |  00   | 1  |  0   |   0   |  0
   85 | 00000020 | 00000013 | 0000001c | 00000013 | 00000018 | 0000006f | 0000001c | 00000000   | x00  | 0000001c  |   0   |  00   |  00   | 1  |  0   |   1   |  0

      >>> JUMP : PC=00000018 TARGET=00000018

   86 | 00000018 | 0000006f | 00000000 | 00000013 | 00000000 | 00000013 | 00000000 | 0000001c   | x00  | 00000000  |   0   |  00   |  00   | 1  |  0   |   0   |  0
   87 | 0000001c | 00000013 | 00000018 | 0000006f | 00000000 | 00000013 | 00000000 | 00000000   | x00  | 00000000  |   0   |  00   |  00   | 1  |  0   |   0   |  0
   88 | 00000020 | 00000013 | 0000001c | 00000013 | 00000018 | 0000006f | 0000001c | 00000000   | x00  | 0000001c  |   0   |  00   |  00   | 1  |  0   |   1   |  0

      >>> JUMP : PC=00000018 TARGET=00000018

   89 | 00000018 | 0000006f | 00000000 | 00000013 | 00000000 | 00000013 | 00000000 | 0000001c   | x00  | 00000000  |   0   |  00   |  00   | 1  |  0   |   0   |  0
   90 | 0000001c | 00000013 | 00000018 | 0000006f | 00000000 | 00000013 | 00000000 | 00000000   | x00  | 00000000  |   0   |  00   |  00   | 1  |  0   |   0   |  0
   91 | 00000020 | 00000013 | 0000001c | 00000013 | 00000018 | 0000006f | 0000001c | 00000000   | x00  | 0000001c  |   0   |  00   |  00   | 1  |  0   |   1   |  0

      >>> JUMP : PC=00000018 TARGET=00000018

   92 | 00000018 | 0000006f | 00000000 | 00000013 | 00000000 | 00000013 | 00000000 | 0000001c   | x00  | 00000000  |   0   |  00   |  00   | 1  |  0   |   0   |  0
   93 | 0000001c | 00000013 | 00000018 | 0000006f | 00000000 | 00000013 | 00000000 | 00000000   | x00  | 00000000  |   0   |  00   |  00   | 1  |  0   |   0   |  0
   94 | 00000020 | 00000013 | 0000001c | 00000013 | 00000018 | 0000006f | 0000001c | 00000000   | x00  | 0000001c  |   0   |  00   |  00   | 1  |  0   |   1   |  0

      >>> JUMP : PC=00000018 TARGET=00000018

   95 | 00000018 | 0000006f | 00000000 | 00000013 | 00000000 | 00000013 | 00000000 | 0000001c   | x00  | 00000000  |   0   |  00   |  00   | 1  |  0   |   0   |  0
   96 | 0000001c | 00000013 | 00000018 | 0000006f | 00000000 | 00000013 | 00000000 | 00000000   | x00  | 00000000  |   0   |  00   |  00   | 1  |  0   |   0   |  0
   97 | 00000020 | 00000013 | 0000001c | 00000013 | 00000018 | 0000006f | 0000001c | 00000000   | x00  | 0000001c  |   0   |  00   |  00   | 1  |  0   |   1   |  0

      >>> JUMP : PC=00000018 TARGET=00000018

   98 | 00000018 | 0000006f | 00000000 | 00000013 | 00000000 | 00000013 | 00000000 | 0000001c   | x00  | 00000000  |   0   |  00   |  00   | 1  |  0   |   0   |  0
INFO: [USF-XSim-96] XSim completed. Design snapshot 'tb_top_level_riscv_behav' loaded.
INFO: [USF-XSim-97] XSim simulation ran for 1000ns
launch_simulation: Time (s): cpu = 00:00:16 ; elapsed = 00:00:09 . Memory (MB): peak = 1716.539 ; gain = 1.035
run 4000 ns
   99 | 0000001c | 00000013 | 00000018 | 0000006f | 00000000 | 00000013 | 00000000 | 00000000   | x00  | 00000000  |   0   |  00   |  00   | 1  |  0   |   0   |  0
  100 | 00000020 | 00000013 | 0000001c | 00000013 | 00000018 | 0000006f | 0000001c | 00000000   | x00  | 0000001c  |   0   |  00   |  00   | 1  |  0   |   1   |  0

      >>> JUMP : PC=00000018 TARGET=00000018

  101 | 00000018 | 0000006f | 00000000 | 00000013 | 00000000 | 00000013 | 00000000 | 0000001c   | x00  | 00000000  |   0   |  00   |  00   | 1  |  0   |   0   |  0
  102 | 0000001c | 00000013 | 00000018 | 0000006f | 00000000 | 00000013 | 00000000 | 00000000   | x00  | 00000000  |   0   |  00   |  00   | 1  |  0   |   0   |  0
  103 | 00000020 | 00000013 | 0000001c | 00000013 | 00000018 | 0000006f | 0000001c | 00000000   | x00  | 0000001c  |   0   |  00   |  00   | 1  |  0   |   1   |  0

      >>> JUMP : PC=00000018 TARGET=00000018

  104 | 00000018 | 0000006f | 00000000 | 00000013 | 00000000 | 00000013 | 00000000 | 0000001c   | x00  | 00000000  |   0   |  00   |  00   | 1  |  0   |   0   |  0
  105 | 0000001c | 00000013 | 00000018 | 0000006f | 00000000 | 00000013 | 00000000 | 00000000   | x00  | 00000000  |   0   |  00   |  00   | 1  |  0   |   0   |  0
  106 | 00000020 | 00000013 | 0000001c | 00000013 | 00000018 | 0000006f | 0000001c | 00000000   | x00  | 0000001c  |   0   |  00   |  00   | 1  |  0   |   1   |  0

      >>> JUMP : PC=00000018 TARGET=00000018

  107 | 00000018 | 0000006f | 00000000 | 00000013 | 00000000 | 00000013 | 00000000 | 0000001c   | x00  | 00000000  |   0   |  00   |  00   | 1  |  0   |   0   |  0
  108 | 0000001c | 00000013 | 00000018 | 0000006f | 00000000 | 00000013 | 00000000 | 00000000   | x00  | 00000000  |   0   |  00   |  00   | 1  |  0   |   0   |  0
  109 | 00000020 | 00000013 | 0000001c | 00000013 | 00000018 | 0000006f | 0000001c | 00000000   | x00  | 0000001c  |   0   |  00   |  00   | 1  |  0   |   1   |  0

      >>> JUMP : PC=00000018 TARGET=00000018

  110 | 00000018 | 0000006f | 00000000 | 00000013 | 00000000 | 00000013 | 00000000 | 0000001c   | x00  | 00000000  |   0   |  00   |  00   | 1  |  0   |   0   |  0
  111 | 0000001c | 00000013 | 00000018 | 0000006f | 00000000 | 00000013 | 00000000 | 00000000   | x00  | 00000000  |   0   |  00   |  00   | 1  |  0   |   0   |  0
  112 | 00000020 | 00000013 | 0000001c | 00000013 | 00000018 | 0000006f | 0000001c | 00000000   | x00  | 0000001c  |   0   |  00   |  00   | 1  |  0   |   1   |  0

      >>> JUMP : PC=00000018 TARGET=00000018

  113 | 00000018 | 0000006f | 00000000 | 00000013 | 00000000 | 00000013 | 00000000 | 0000001c   | x00  | 00000000  |   0   |  00   |  00   | 1  |  0   |   0   |  0
  114 | 0000001c | 00000013 | 00000018 | 0000006f | 00000000 | 00000013 | 00000000 | 00000000   | x00  | 00000000  |   0   |  00   |  00   | 1  |  0   |   0   |  0
  115 | 00000020 | 00000013 | 0000001c | 00000013 | 00000018 | 0000006f | 0000001c | 00000000   | x00  | 0000001c  |   0   |  00   |  00   | 1  |  0   |   1   |  0

      >>> JUMP : PC=00000018 TARGET=00000018

  116 | 00000018 | 0000006f | 00000000 | 00000013 | 00000000 | 00000013 | 00000000 | 0000001c   | x00  | 00000000  |   0   |  00   |  00   | 1  |  0   |   0   |  0
  117 | 0000001c | 00000013 | 00000018 | 0000006f | 00000000 | 00000013 | 00000000 | 00000000   | x00  | 00000000  |   0   |  00   |  00   | 1  |  0   |   0   |  0
  118 | 00000020 | 00000013 | 0000001c | 00000013 | 00000018 | 0000006f | 0000001c | 00000000   | x00  | 0000001c  |   0   |  00   |  00   | 1  |  0   |   1   |  0

      >>> JUMP : PC=00000018 TARGET=00000018

  119 | 00000018 | 0000006f | 00000000 | 00000013 | 00000000 | 00000013 | 00000000 | 0000001c   | x00  | 00000000  |   0   |  00   |  00   | 1  |  0   |   0   |  0
  120 | 0000001c | 00000013 | 00000018 | 0000006f | 00000000 | 00000013 | 00000000 | 00000000   | x00  | 00000000  |   0   |  00   |  00   | 1  |  0   |   0   |  0
  121 | 00000020 | 00000013 | 0000001c | 00000013 | 00000018 | 0000006f | 0000001c | 00000000   | x00  | 0000001c  |   0   |  00   |  00   | 1  |  0   |   1   |  0

      >>> JUMP : PC=00000018 TARGET=00000018

  122 | 00000018 | 0000006f | 00000000 | 00000013 | 00000000 | 00000013 | 00000000 | 0000001c   | x00  | 00000000  |   0   |  00   |  00   | 1  |  0   |   0   |  0
  123 | 0000001c | 00000013 | 00000018 | 0000006f | 00000000 | 00000013 | 00000000 | 00000000   | x00  | 00000000  |   0   |  00   |  00   | 1  |  0   |   0   |  0
  124 | 00000020 | 00000013 | 0000001c | 00000013 | 00000018 | 0000006f | 0000001c | 00000000   | x00  | 0000001c  |   0   |  00   |  00   | 1  |  0   |   1   |  0

      >>> JUMP : PC=00000018 TARGET=00000018

  125 | 00000018 | 0000006f | 00000000 | 00000013 | 00000000 | 00000013 | 00000000 | 0000001c   | x00  | 00000000  |   0   |  00   |  00   | 1  |  0   |   0   |  0
  126 | 0000001c | 00000013 | 00000018 | 0000006f | 00000000 | 00000013 | 00000000 | 00000000   | x00  | 00000000  |   0   |  00   |  00   | 1  |  0   |   0   |  0
  127 | 00000020 | 00000013 | 0000001c | 00000013 | 00000018 | 0000006f | 0000001c | 00000000   | x00  | 0000001c  |   0   |  00   |  00   | 1  |  0   |   1   |  0

      >>> JUMP : PC=00000018 TARGET=00000018

  128 | 00000018 | 0000006f | 00000000 | 00000013 | 00000000 | 00000013 | 00000000 | 0000001c   | x00  | 00000000  |   0   |  00   |  00   | 1  |  0   |   0   |  0
  129 | 0000001c | 00000013 | 00000018 | 0000006f | 00000000 | 00000013 | 00000000 | 00000000   | x00  | 00000000  |   0   |  00   |  00   | 1  |  0   |   0   |  0
  130 | 00000020 | 00000013 | 0000001c | 00000013 | 00000018 | 0000006f | 0000001c | 00000000   | x00  | 0000001c  |   0   |  00   |  00   | 1  |  0   |   1   |  0

      >>> JUMP : PC=00000018 TARGET=00000018

  131 | 00000018 | 0000006f | 00000000 | 00000013 | 00000000 | 00000013 | 00000000 | 0000001c   | x00  | 00000000  |   0   |  00   |  00   | 1  |  0   |   0   |  0
  132 | 0000001c | 00000013 | 00000018 | 0000006f | 00000000 | 00000013 | 00000000 | 00000000   | x00  | 00000000  |   0   |  00   |  00   | 1  |  0   |   0   |  0
  133 | 00000020 | 00000013 | 0000001c | 00000013 | 00000018 | 0000006f | 0000001c | 00000000   | x00  | 0000001c  |   0   |  00   |  00   | 1  |  0   |   1   |  0

      >>> JUMP : PC=00000018 TARGET=00000018

  134 | 00000018 | 0000006f | 00000000 | 00000013 | 00000000 | 00000013 | 00000000 | 0000001c   | x00  | 00000000  |   0   |  00   |  00   | 1  |  0   |   0   |  0
  135 | 0000001c | 00000013 | 00000018 | 0000006f | 00000000 | 00000013 | 00000000 | 00000000   | x00  | 00000000  |   0   |  00   |  00   | 1  |  0   |   0   |  0
  136 | 00000020 | 00000013 | 0000001c | 00000013 | 00000018 | 0000006f | 0000001c | 00000000   | x00  | 0000001c  |   0   |  00   |  00   | 1  |  0   |   1   |  0

      >>> JUMP : PC=00000018 TARGET=00000018

  137 | 00000018 | 0000006f | 00000000 | 00000013 | 00000000 | 00000013 | 00000000 | 0000001c   | x00  | 00000000  |   0   |  00   |  00   | 1  |  0   |   0   |  0
  138 | 0000001c | 00000013 | 00000018 | 0000006f | 00000000 | 00000013 | 00000000 | 00000000   | x00  | 00000000  |   0   |  00   |  00   | 1  |  0   |   0   |  0
  139 | 00000020 | 00000013 | 0000001c | 00000013 | 00000018 | 0000006f | 0000001c | 00000000   | x00  | 0000001c  |   0   |  00   |  00   | 1  |  0   |   1   |  0

      >>> JUMP : PC=00000018 TARGET=00000018

  140 | 00000018 | 0000006f | 00000000 | 00000013 | 00000000 | 00000013 | 00000000 | 0000001c   | x00  | 00000000  |   0   |  00   |  00   | 1  |  0   |   0   |  0
  141 | 0000001c | 00000013 | 00000018 | 0000006f | 00000000 | 00000013 | 00000000 | 00000000   | x00  | 00000000  |   0   |  00   |  00   | 1  |  0   |   0   |  0
  142 | 00000020 | 00000013 | 0000001c | 00000013 | 00000018 | 0000006f | 0000001c | 00000000   | x00  | 0000001c  |   0   |  00   |  00   | 1  |  0   |   1   |  0

      >>> JUMP : PC=00000018 TARGET=00000018

